{
  "consumes": [
    "application/json"
  ],
  "produces": [
    "application/json"
  ],
  "swagger": "2.0",
  "info": {
    "description": "Schemes:\nhttp\nhttps",
    "title": "Go-courier.",
    "version": "1.0.0"
  },
  "basePath": "/",
  "paths": {
    "/api/status": {
      "get": {
        "tags": [
          "courier"
        ],
        "summary": "Find courier with orders location.",
        "operationId": "courierStatusRequest",
        "responses": {
          "200": {
            "$ref": "#/responses/courierStatusResponse"
          },
          "400": {
            "description": " Bad request"
          },
          "500": {
            "description": " Internal server error"
          }
        }
      }
    }
  },
  "definitions": {
    "Point": {
      "type": "object",
      "properties": {
        "lat": {
          "type": "number",
          "format": "double",
          "x-go-name": "Lat"
        },
        "lng": {
          "type": "number",
          "format": "double",
          "x-go-name": "Lng"
        }
      },
      "x-go-package": "gitlab.com/citaces/geotask/module/courier/models"
    }
  },
  "responses": {
    "courierStatusResponse": {
      "description": "",
      "schema": {
        "$ref": "#/definitions/Point"
      },
      "headers": {
        "location": {},
        "score": {
          "type": "integer",
          "format": "int64"
        }
      }
    }
  }
}